Learning Statistics with R - 11 Descriptive statistics
…
Important

You are, I’m sorry to inform you, reading the work-in-progress revision of “Learning Statistics with R”. This chapter is currently a mess, and I don’t recommend reading it.

Any time that you get a new data set to look at, one of the first tasks that you have to do is find ways of summarising the data in a compact, easily understood fashion. This is what descriptive statistics (as opposed to inferential statistics) is all about. In fact, to many people the term “statistics” is synonymous with descriptive statistics. It is this topic that we’ll consider in this chapter, but before going into any details, let’s take a moment to get a sense of why we need descriptive statistics. To get started, let’s take a look at the southern_slam data that is bundled as part of the lsrbook package. First, let’s load the packages that we’ll need:

library(tibble)
library(lsrbook)

The reason for loading the lsrbook package is probably obvious: that’s the package that provides the data set! The reason for loading tibble is probably less obvious, so I’d better explain: now that I’ve loaded the tibble package, the southern_slam data set will be interpreted as a tibble rather than a “vanilla” data frame. As a consequence, when I print the southern_slam data I get some slightly nicer looking output:

southern_slam

# A tibble: 43 × 10
   time                home_team    home_score visitor_team visitor_score margin
   <dttm>              <chr>             <dbl> <chr>                <dbl>  <dbl>
 1 2022-06-11 09:00:00 Coastal Ass…        258 Devil State…            62    196
 2 2022-06-11 09:00:00 Tweed Valle…        248 Kingston Ci…           197     51
 3 2022-06-11 09:00:00 North East …        160 Van Diemen …           137     23
 4 2022-06-11 10:45:00 Canberra Ro…        104 South Sea R…           210    106
 5 2022-06-11 10:45:00 Victorian R…        297 Brisbane Ci…            78    219
 6 2022-06-11 12:30:00 Newcastle R…         94 WestSide Ro…           154     60
 7 2022-06-11 12:30:00 Ballarat Ro…         83 Light City …           369    286
 8 2022-06-11 14:15:00 Sun State R…        114 Western Aus…           224    110
 9 2022-06-11 14:15:00 Victorian R…         89 Adelaide Ro…           232    143
10 2022-06-11 16:00:00 Coastal Ass…        224 Inner West …            65    159
# ℹ 33 more rows
# ℹ 4 more variables: track <dbl>, division <dbl>, pool <chr>, type <chr>
…
[1] 5.5

which in this case gives exactly the same answer as the median. Note that, to get a 10% trimmed mean you write trim = .1, not trim = 10. In any case, let’s finish up by calculating the 5% trimmed mean for the southern_slam$margin data,

mean(southern_slam$margin, trim = .05)  

[1] 126.5128

11.1.6 Mode

The mode of a sample is very simple: it is the value that occurs most frequently. It’s most often used for categorical variables, for which the mean and median don’t really make sense. We’ll use a different data set for this. The archibald data set supplied by the lsrbook package contains a table listing the winners of the Archibald Prize for Portraiture from 1921 to 2023.

archibald

# A tibble: 166 × 6
   prize           year  artist            title             subject n_finalists
   <chr>           <chr> <chr>             <chr>             <chr>         <dbl>
 1 Archibald Prize 1921  William McInnes   Desbrowe Annear   Harold…          45
 2 Archibald Prize 1922  William McInnes   Professor Harris… Willia…          53
 3 Archibald Prize 1923  William McInnes   Portrait of a La… Violet…          50
 4 Archibald Prize 1924  William McInnes   Miss Collins      Gladys…          40
 5 Archibald Prize 1925  John Longstaff    Maurice Moscovit… Mauric…          74
 6 Archibald Prize 1926  William McInnes   Silk and Lace (M… Esther…          58
 7 Archibald Prize 1927  George W. Lambert Mrs Annie Murdoch Annie …          56
 8 Archibald Prize 1928  John Longstaff    Dr Alexander Lee… Alexan…          66
 9 Archibald Prize 1929  John Longstaff    The Hon W A Holm… Willia…          75
10 Archibald Prize 1930  William McInnes   Drum-Major Harry… Harry …          67
# ℹ 156 more rows
…
